…
# Load Data
smash_tidy <- read_csv(here::here("Project", "Data", "smash_tidy.csv"))

smash_tidy
```

    ## # A tibble: 106 x 14
    ##    character total_players per_played string1 base_accel Air.speed Fast.Fall
    ##    <chr>             <dbl>      <dbl>   <dbl> <chr>          <dbl>     <dbl>
    ##  1 Cloud               190       3.66     102 0.01           1.16       2.69
    ##  2 Bayonetta           151       2.91      26 0.01           1.02       2.83
    ##  3 Terry               135       2.6       46 <NA>           0.95       2.37
    ##  4 Joker               114       2.2       44 <NA>           1.1        3.10
    ##  5 Ganondorf           110       2.12      35 0.01           0.83       2.64
    ##  6 Young Li…           129       2.48      26 0.02           0.966      2.88
    ##  7 Snake                97       1.87      39 0.01           0.987      2.77
    ##  8 Inkling              95       1.83      35 0.01           1.21       2.53
    ##  9 Inkling              95       1.83      35 0.01           1.21       2.53
    ## 10 Marth                93       1.79      31 0.01           1.07       2.53
    ## # … with 96 more rows, and 7 more variables: fullhop_height <chr>,
    ## #   shorthop_height <chr>, airjump_height <chr>, Weight <dbl>, Run.Speed <dbl>,
    ## #   Grab.Range <chr>, oos_move <chr>
…
# classify values
smash_tidy$weight_class = with(smash_tidy, 
                               cut(Weight, 
                                   vTert, 
                                   include.lowest = T, 
                                   labels = c("Light", "Medium", "Heavy")))

# Inspect new variable compared to ids and original weight
smash_tidy %>% 
  select(character, Weight, weight_class)
```

    ## # A tibble: 106 x 3
    ##    character  Weight weight_class
    ##    <chr>       <dbl> <fct>       
    ##  1 Cloud         100 Heavy       
    ##  2 Bayonetta      81 Light       
    ##  3 Terry         108 Heavy       
    ##  4 Joker          93 Medium      
    ##  5 Ganondorf     118 Heavy       
    ##  6 Young Link     88 Light       
    ##  7 Snake         106 Heavy       
    ##  8 Inkling        94 Medium      
    ##  9 Inkling        94 Medium      
    ## 10 Marth          90 Light       
    ## # … with 96 more rows
…
    ## `summarise()` ungrouping output (override with `.groups` argument)

``` r
# finally join and drop na's
smash_weights <- smash_tidy %>% 
  inner_join(smash_density, by = "weight_class") %>% 
  drop_na(total_players)

smash_weights
```

    ## # A tibble: 101 x 16
    ##    character total_players per_played string1 base_accel Air.speed Fast.Fall
    ##    <chr>             <dbl>      <dbl>   <dbl> <chr>          <dbl>     <dbl>
    ##  1 Cloud               190       3.66     102 0.01           1.16       2.69
    ##  2 Bayonetta           151       2.91      26 0.01           1.02       2.83
    ##  3 Terry               135       2.6       46 <NA>           0.95       2.37
    ##  4 Joker               114       2.2       44 <NA>           1.1        3.10
    ##  5 Ganondorf           110       2.12      35 0.01           0.83       2.64
    ##  6 Young Li…           129       2.48      26 0.02           0.966      2.88
    ##  7 Snake                97       1.87      39 0.01           0.987      2.77
    ##  8 Inkling              95       1.83      35 0.01           1.21       2.53
    ##  9 Inkling              95       1.83      35 0.01           1.21       2.53
    ## 10 Marth                93       1.79      31 0.01           1.07       2.53
    ## # … with 91 more rows, and 9 more variables: fullhop_height <chr>,
    ## #   shorthop_height <chr>, airjump_height <chr>, Weight <dbl>, Run.Speed <dbl>,
    ## #   Grab.Range <chr>, oos_move <chr>, weight_class <fct>, w_density <dbl>
…
